{
  "name": "Nope",
  "pattern": "(?i)^nope$",
  "responses": [
    "http://a1.img.mobypicture.com/89b6430f2d71a89191a58490be2da3c4_view.jpg",
    "http://troll.me/images/tarik-boss/nope.jpg",
    "http://s2.quickmeme.com/img/69/690524ec233ec9fa86f81ef4d6007b5f7379ae1127924560bb9a8829abed0951.jpg",
    "http://s2.quickmeme.com/img/48/4825a116ae2b149ad6ae3557330838fab79c7945be20e309210fa885d7f3a923.jpg",
    "http://s2.quickmeme.com/img/04/04bdf6ec08c2ba2dd5d2503a49ef5c5a31357fdc666c9f667bcac3e27665aaaf.jpg",
    "http://troll.me/images/business-cat-needs/nope.jpg",
    "http://s2.quickmeme.com/img/e4/e4872b5d9a59ea129c642fda613a5ea496810457e8172373b46fb2ab19f0c434.jpg",
    "http://weknowmemes.com/wp-content/uploads/2012/04/nope-cat.jpg",
    "http://i0.kym-cdn.com/photos/images/newsfeed/000/727/911/515.gif",
    "http://rs1img.memecdn.com/godzilla-nope-nope-nope_o_2214947.jpg",
    "http://rs1img.memecdn.com/nope-exe_o_675265.jpg",
    "http://s2.quickmeme.com/img/58/58569113949023fc7f343e5597126d6ef01615fa208605df3d4413cc57db6279.jpg",
    "http://i1.kym-cdn.com/photos/images/original/000/602/247/e19.jpeg",
    "http://ct.fra.bz/ol/fz/sw/i51/5/5/13/frabz-nope-b627e1.jpg",
    "http://s2.quickmeme.com/img/08/0891c252b2485ded80116e801eb0695f9cd6cd0dc6d44065f8f568cc86cf985b.jpg",
    "http://mrwgifs.com/wp-content/uploads/2013/08/Batman-Finger-Waves-Nope-In-The-Animated-Series.gif",
    "http://media-cache-cd0.pinimg.com/736x/da/59/c8/da59c8e25f4e4ff3d45f47260028b3b6.jpg",
    "http://i.kinja-img.com/gawker-media/image/upload/s--IajbW-QL--/mqnp3rw7dggseurtnhne.gif",
    "http://c0.thejournal.ie/media/2013/10/nope1.gif",
    "http://i.kinja-img.com/gawker-media/image/upload/s---s_gL9K9--/18uzodohufsy4gif.gif",
    "http://media.giphy.com/media/HuhLWYOrrAbcY/giphy.gif",
    "http://media.giphy.com/media/tInuiWy5wTxq8/giphy.gif",
    "http://media.giphy.com/media/11ba0BccoVk6wU/giphy.gif"
  ]
}
